PhysLab_UCSB/HeNe_LaserProperties/Fabry-Perot SA data:waveforms/OneCycle/F0000CH2.CSV

Record Length,2.500000e+03,,   0.015500000000, -80.00000,
Sample Interval,1.000000e-05,,   0.015510000000, -80.00000,
Trigger Point,-1.550000000000e+03,,   0.015520000000, -80.00000,
,,,   0.015530000000, -80.00000,
,,,   0.015540000000, -80.00000,
,,,   0.015550000000, -80.00000,
Source,CH2,,   0.015560000000, -80.00000,
Vertical Units,V,,   0.015570000000, -80.00000,
Vertical Scale,5.000000e+01,,   0.015580000000, -80.00000,
Vertical Offset,0.000000e+00,,   0.015590000000, -80.00000,
Horizontal Units,s,,   0.015600000000, -80.00000,
Horizontal Scale,2.500000e-03,,   0.015610000000, -80.00000,
Pt Fmt,Y,,   0.015620000000, -80.00000,
Yzero,0.000000e+00,,   0.015630000000, -80.00000,
Probe Atten,1.000000e+01,,   0.015640000000, -80.00000,
Model Number,TDS2022B,,   0.015650000000, -78.00000,
Serial Number,C052112,,   0.015660000000, -80.00000,
Firmware Version,FV:v22.16,,   0.015670000000, -80.00000,
,,,0.015680000000, -80.00000,
,,,0.015690000000, -80.00000,
,,,0.015700000000, -80.00000,
,,,0.015710000000, -80.00000,
,,,0.015720000000, -80.00000,
,,,0.015730000000, -80.00000,
,,,0.015740000000, -80.00000,
,,,0.015750000000, -80.00000,
,,,0.015760000000, -80.00000,
,,,0.015770000000, -80.00000,
,,,0.015780000000, -80.00000,
,,,0.015790000000, -80.00000,
,,,0.015800000000, -80.00000,
,,,0.015810000000, -80.00000,
,,,0.015820000000, -80.00000,
,,,0.015830000000, -80.00000,
,,,0.015840000000, -78.00000,
,,,0.015850000000, -78.00000,
,,,0.015860000000, -80.00000,
,,,0.015870000000, -80.00000,
,,,0.015880000000, -80.00000,
,,,0.015890000000, -80.00000,
,,,0.015900000000, -78.00000,
,,,0.015910000000, -80.00000,
,,,0.015920000000, -78.00000,
,,,0.015930000000, -78.00000,
,,,0.015940000000, -78.00000,
,,,0.015950000000, -78.00000,
,,,0.015960000000, -78.00000,
,,,0.015970000000, -80.00000,
,,,0.015980000000, -80.00000,
,,,0.015990000000, -78.00000,
,,,0.016000000000, -78.00000,
,,,0.016010000000, -78.00000,
,,,0.016020000000, -78.00000,
,,,0.016030000000, -76.00000,
,,,0.016040000000, -78.00000,
,,,0.016050000000, -78.00000,
,,,0.016060000000, -78.00000,
,,,0.016070000000, -78.00000,
,,,0.016080000000, -80.00000,
,,,0.016090000000, -78.00000,
,,,0.016100000000, -78.00000,
,,,0.016110000000, -78.00000,
,,,0.016120000000, -78.00000,
,,,0.016130000000, -78.00000,
,,,0.016140000000, -78.00000,
,,,0.016150000000, -78.00000,
,,,0.016160000000, -78.00000,
,,,0.016170000000, -78.00000,
,,,0.016180000000, -78.00000,
,,,0.016190000000, -78.00000,
,,,0.016200000000, -78.00000,
,,,0.016210000000, -78.00000,
,,,0.016220000000, -78.00000,
,,,0.016230000000, -78.00000,
,,,0.016240000000, -78.00000,
,,,0.016250000000, -78.00000,
,,,0.016260000000, -78.00000,
,,,0.016270000000, -78.00000,
,,,0.016280000000, -78.00000,
,,,0.016290000000, -78.00000,
,,,0.016300000000, -78.00000,
,,,0.016310000000, -78.00000,
,,,0.016320000000, -78.00000,
,,,0.016330000000, -78.00000,
,,,0.016340000000, -78.00000,
,,,0.016350000000, -78.00000,
,,,0.016360000000, -78.00000,
,,,0.016370000000, -78.00000,
,,,0.016380000000, -76.00000,
,,,0.016390000000, -76.00000,
,,,0.016400000000, -78.00000,
,,,0.016410000000, -78.00000,
,,,0.016420000000, -78.00000,
,,,0.016430000000, -76.00000,
,,,0.016440000000, -78.00000,
,,,0.016450000000, -78.00000,
,,,0.016460000000, -76.00000,
,,,0.016470000000, -78.00000,
,,,0.016480000000, -76.00000,
,,,0.016490000000, -78.00000,
,,,0.016500000000, -76.00000,
,,,0.016510000000, -78.00000,
,,,0.016520000000, -76.00000,
,,,0.016530000000, -76.00000,
,,,0.016540000000, -76.00000,
,,,0.016550000000, -76.00000,
,,,0.016560000000, -78.00000,
,,,0.016570000000, -76.00000,
,,,0.016580000000, -76.00000,
,,,0.016590000000, -76.00000,
,,,0.016600000000, -76.00000,
,,,0.016610000000, -76.00000,
,,,0.016620000000, -76.00000,
,,,0.016630000000, -76.00000,
,,,0.016640000000, -76.00000,
,,,0.016650000000, -76.00000,
,,,0.016660000000, -76.00000,
,,,0.016670000000, -76.00000,
,,,0.016680000000, -76.00000,
,,,0.016690000000, -76.00000,
,,,0.016700000000, -76.00000,
,,,0.016710000000, -76.00000,
,,,0.016720000000, -76.00000,
,,,0.016730000000, -76.00000,
,,,0.016740000000, -76.00000,
,,,0.016750000000, -76.00000,
,,,0.016760000000, -76.00000,
,,,0.016770000000, -76.00000,
,,,0.016780000000, -76.00000,
,,,0.016790000000, -76.00000,
,,,0.016800000000, -76.00000,
,,,0.016810000000, -76.00000,
,,,0.016820000000, -76.00000,
,,,0.016830000000, -74.00000,
,,,0.016840000000, -76.00000,
,,,0.016850000000, -76.00000,
,,,0.016860000000, -76.00000,
,,,0.016870000000, -76.00000,
,,,0.016880000000, -76.00000,
,,,0.016890000000, -76.00000,
,,,0.016900000000, -74.00000,
,,,0.016910000000, -76.00000,
,,,0.016920000000, -76.00000,
,,,0.016930000000, -74.00000,
,,,0.016940000000, -76.00000,
,,,0.016950000000, -76.00000,
,,,0.016960000000, -76.00000,
,,,0.016970000000, -74.00000,
,,,0.016980000000, -76.00000,
,,,0.016990000000, -76.00000,
,,,0.017000000000, -76.00000,
,,,0.017010000000, -76.00000,
,,,0.017020000000, -74.00000,
,,,0.017030000000, -74.00000,
,,,0.017040000000, -74.00000,
,,,0.017050000000, -76.00000,
,,,0.017060000000, -74.00000,
,,,0.017070000000, -74.00000,
,,,0.017080000000, -76.00000,
,,,0.017090000000, -74.00000,
,,,0.017100000000, -76.00000,
,,,0.017110000000, -74.00000,
,,,0.017120000000, -76.00000,
,,,0.017130000000, -74.00000,
,,,0.017140000000, -74.00000,
,,,0.017150000000, -76.00000,
,,,0.017160000000, -74.00000,
,,,0.017170000000, -74.00000,
,,,0.017180000000, -74.00000,
,,,0.017190000000, -74.00000,
,,,0.017200000000, -74.00000,
,,,0.017210000000, -74.00000,
,,,0.017220000000, -74.00000,
,,,0.017230000000, -76.00000,
,,,0.017240000000, -74.00000,
,,,0.017250000000, -74.00000,
,,,0.017260000000, -74.00000,
,,,0.017270000000, -76.00000,
,,,0.017280000000, -74.00000,
,,,0.017290000000, -74.00000,
,,,0.017300000000, -76.00000,
,,,0.017310000000, -76.00000,
,,,0.017320000000, -74.00000,
,,,0.017330000000, -74.00000,
,,,0.017340000000, -74.00000,
,,,0.017350000000, -74.00000,
,,,0.017360000000, -74.00000,
,,,0.017370000000, -74.00000,
,,,0.017380000000, -74.00000,
,,,0.017390000000, -74.00000,
,,,0.017400000000, -74.00000,
,,,0.017410000000, -74.00000,
,,,0.017420000000, -74.00000,
,,,0.017430000000, -74.00000,
,,,0.017440000000, -74.00000,
,,,0.017450000000, -74.00000,
,,,0.017460000000, -74.00000,
,,,0.017470000000, -74.00000,
,,,0.017480000000, -74.00000,
,,,0.017490000000, -74.00000,
,,,0.017500000000, -74.00000,
,,,0.017510000000, -74.00000,
,,,0.017520000000, -74.00000,
,,,0.017530000000, -74.00000,
,,,0.017540000000, -72.00000,
,,,0.017550000000, -74.00000,
,,,0.017560000000, -74.00000,
,,,0.017570000000, -74.00000,
,,,0.017580000000, -74.00000,
,,,0.017590000000, -72.00000,
,,,0.017600000000, -74.00000,
,,,0.017610000000, -72.00000,
,,,0.017620000000, -74.00000,
,,,0.017630000000, -72.00000,
,,,0.017640000000, -72.00000,
,,,0.017650000000, -72.00000,
,,,0.017660000000, -74.00000,
,,,0.017670000000, -74.00000,
,,,0.017680000000, -72.00000,
,,,0.017690000000, -74.00000,
,,,0.017700000000, -72.00000,
,,,0.017710000000, -72.00000,
,,,0.017720000000, -74.00000,
,,,0.017730000000, -72.00000,
,,,0.017740000000, -72.00000,
,,,0.017750000000, -74.00000,
,,,0.017760000000, -72.00000,
,,,0.017770000000, -72.00000,
,,,0.017780000000, -72.00000,
,,,0.017790000000, -72.00000,
,,,0.017800000000, -74.00000,
,,,0.017810000000, -72.00000,
,,,0.017820000000, -72.00000,
,,,0.017830000000, -72.00000,
,,,0.017840000000, -72.00000,
,,,0.017850000000, -72.00000,
,,,0.017860000000, -72.00000,
,,,0.017870000000, -72.00000,
,,,0.017880000000, -72.00000,
,,,0.017890000000, -72.00000,
,,,0.017900000000, -72.00000,
,,,0.017910000000, -72.00000,
,,,0.017920000000, -72.00000,
,,,0.017930000000, -72.00000,
,,,0.017940000000, -72.00000,
,,,0.017950000000, -72.00000,
,,,0.017960000000, -72.00000,
,,,0.017970000000, -72.00000,
,,,0.017980000000, -72.00000,
,,,0.017990000000, -72.00000,
,,,0.018000000000, -72.00000,
,,,0.018010000000, -72.00000,
,,,0.018020000000, -72.00000,
,,,0.018030000000, -72.00000,
,,,0.018040000000, -72.00000,
,,,0.018050000000, -72.00000,
,,,0.018060000000, -72.00000,
,,,0.018070000000, -72.00000,
,,,0.018080000000, -72.00000,
,,,0.018090000000, -70.00000,
,,,0.018100000000, -72.00000,
,,,0.018110000000, -72.00000,
,,,0.018120000000, -72.00000,
,,,0.018130000000, -70.00000,
,,,0.018140000000, -70.00000,
,,,0.018150000000, -72.00000,
,,,0.018160000000, -72.00000,
,,,0.018170000000, -72.00000,
,,,0.018180000000, -70.00000,
,,,0.018190000000, -70.00000,
,,,0.018200000000, -70.00000,
,,,0.018210000000, -72.00000,
,,,0.018220000000, -72.00000,
,,,0.018230000000, -72.00000,
,,,0.018240000000, -70.00000,
,,,0.018250000000, -72.00000,
,,,0.018260000000, -70.00000,
,,,0.018270000000, -70.00000,
,,,0.018280000000, -70.00000,
,,,0.018290000000, -72.00000,
,,,0.018300000000, -72.00000,
,,,0.018310000000, -70.00000,
,,,0.018320000000, -70.00000,
,,,0.018330000000, -70.00000,
,,,0.018340000000, -70.00000,
,,,0.018350000000, -70.00000,
,,,0.018360000000, -70.00000,
,,,0.018370000000, -70.00000,
,,,0.018380000000, -70.00000,
,,,0.018390000000, -70.00000,
,,,0.018400000000, -70.00000,
,,,0.018410000000, -70.00000,
,,,0.018420000000, -70.00000,
,,,0.018430000000, -70.00000,
,,,0.018440000000, -70.00000,
,,,0.018450000000, -70.00000,
,,,0.018460000000, -70.00000,
,,,0.018470000000, -70.00000,
,,,0.018480000000, -70.00000,
,,,0.018490000000, -70.00000,
,,,0.018500000000, -70.00000,
,,,0.018510000000, -70.00000,
,,,0.018520000000, -70.00000,
,,,0.018530000000, -70.00000,
,,,0.018540000000, -70.00000,
,,,0.018550000000, -70.00000,
,,,0.018560000000, -70.00000,
,,,0.018570000000, -70.00000,
,,,0.018580000000, -70.00000,
,,,0.018590000000, -70.00000,
,,,0.018600000000, -70.00000,
,,,0.018610000000, -70.00000,
,,,0.018620000000, -70.00000,
,,,0.018630000000, -68.00000,
,,,0.018640000000, -70.00000,
,,,0.018650000000, -70.00000,
,,,0.018660000000, -70.00000,
,,,0.018670000000, -70.00000,
,,,0.018680000000, -70.00000,
,,,0.018690000000, -70.00000,
,,,0.018700000000, -70.00000,
,,,0.018710000000, -70.00000,
,,,0.018720000000, -70.00000,
,,,0.018730000000, -70.00000,
,,,0.018740000000, -68.00000,
,,,0.018750000000, -70.00000,
,,,0.018760000000, -70.00000,
,,,0.018770000000, -70.00000,
,,,0.018780000000, -68.00000,
,,,0.018790000000, -70.00000,
,,,0.018800000000, -70.00000,
,,,0.018810000000, -68.00000,
,,,0.018820000000, -70.00000,
,,,0.018830000000, -68.00000,
,,,0.018840000000, -68.00000,
,,,0.018850000000, -68.00000,
,,,0.018860000000, -70.00000,
,,,0.018870000000, -68.00000,
,,,0.018880000000, -68.00000,
,,,0.018890000000, -68.00000,
,,,0.018900000000, -68.00000,
,,,0.018910000000, -70.00000,
,,,0.018920000000, -68.00000,
,,,0.018930000000, -70.00000,
,,,0.018940000000, -68.00000,
,,,0.018950000000, -68.00000,
,,,0.018960000000, -68.00000,
,,,0.018970000000, -68.00000,
,,,0.018980000000, -70.00000,
,,,0.018990000000, -70.00000,
,,,0.019000000000, -68.00000,
,,,0.019010000000, -68.00000,
,,,0.019020000000, -68.00000,
,,,0.019030000000, -68.00000,
,,,0.019040000000, -68.00000,
,,,0.019050000000, -68.00000,
,,,0.019060000000, -68.00000,
,,,0.019070000000, -68.00000,
,,,0.019080000000, -68.00000,
,,,0.019090000000, -68.00000,
,,,0.019100000000, -68.00000,
,,,0.019110000000, -68.00000,
,,,0.019120000000, -68.00000,
,,,0.019130000000, -68.00000,
,,,0.019140000000, -68.00000,
,,,0.019150000000, -70.00000,
,,,0.019160000000, -68.00000,
,,,0.019170000000, -68.00000,
,,,0.019180000000, -68.00000,
,,,0.019190000000, -68.00000,
,,,0.019200000000, -68.00000,
,,,0.019210000000, -68.00000,
,,,0.019220000000, -68.00000,
,,,0.019230000000, -70.00000,
,,,0.019240000000, -66.00000,
,,,0.019250000000, -68.00000,
,,,0.019260000000, -68.00000,
,,,0.019270000000, -68.00000,
,,,0.019280000000, -68.00000,
,,,0.019290000000, -68.00000,
,,,0.019300000000, -68.00000,
,,,0.019310000000, -68.00000,
,,,0.019320000000, -68.00000,
,,,0.019330000000, -68.00000,
,,,0.019340000000, -68.00000,
,,,0.019350000000, -68.00000,
,,,0.019360000000, -68.00000,
,,,0.019370000000, -66.00000,
,,,0.019380000000, -68.00000,
,,,0.019390000000, -66.00000,
,,,0.019400000000, -66.00000,
,,,0.019410000000, -68.00000,
,,,0.019420000000, -66.00000,
,,,0.019430000000, -68.00000,
,,,0.019440000000, -68.00000,
,,,0.019450000000, -66.00000,
,,,0.019460000000, -66.00000,
,,,0.019470000000, -68.00000,
,,,0.019480000000, -68.00000,
,,,0.019490000000, -68.00000,
,,,0.019500000000, -66.00000,
,,,0.019510000000, -66.00000,
,,,0.019520000000, -66.00000,
,,,0.019530000000, -68.00000,
,,,0.019540000000, -68.00000,
,,,0.019550000000, -68.00000,
,,,0.019560000000, -68.00000,
,,,0.019570000000, -68.00000,
,,,0.019580000000, -66.00000,
,,,0.019590000000, -66.00000,
,,,0.019600000000, -66.00000,
,,,0.019610000000, -66.00000,
,,,0.019620000000, -68.00000,
,,,0.019630000000, -66.00000,
,,,0.019640000000, -66.00000,
,,,0.019650000000, -66.00000,
,,,0.019660000000, -66.00000,
,,,0.019670000000, -66.00000,
,,,0.019680000000, -68.00000,
,,,0.019690000000, -66.00000,
,,,0.019700000000, -66.00000,
,,,0.019710000000, -66.00000,
,,,0.019720000000, -66.00000,
,,,0.019730000000, -66.00000,
,,,0.019740000000, -66.00000,
,,,0.019750000000, -66.00000,
,,,0.019760000000, -66.00000,
,,,0.019770000000, -66.00000,
,,,0.019780000000, -66.00000,
,,,0.019790000000, -66.00000,
,,,0.019800000000, -66.00000,
,,,0.019810000000, -66.00000,
,,,0.019820000000, -66.00000,
,,,0.019830000000, -66.00000,
,,,0.019840000000, -66.00000,
,,,0.019850000000, -66.00000,
,,,0.019860000000, -66.00000,
,,,0.019870000000, -66.00000,
,,,0.019880000000, -66.00000,
,,,0.019890000000, -66.00000,
,,,0.019900000000, -66.00000,
,,,0.019910000000, -66.00000,
,,,0.019920000000, -66.00000,
,,,0.019930000000, -66.00000,
,,,0.019940000000, -66.00000,
,,,0.019950000000, -66.00000,
,,,0.019960000000, -66.00000,
,,,0.019970000000, -66.00000,
,,,0.019980000000, -66.00000,
,,,0.019990000000, -66.00000,
,,,0.020000000000, -66.00000,
,,,0.020010000000, -66.00000,
,,,0.020020000000, -66.00000,
,,,0.020030000000, -66.00000,
,,,0.020040000000, -64.00000,
,,,0.020050000000, -66.00000,
,,,0.020060000000, -66.00000,
,,,0.020070000000, -66.00000,
,,,0.020080000000, -66.00000,
,,,0.020090000000, -66.00000,
,,,0.020100000000, -66.00000,
,,,0.020110000000, -64.00000,
,,,0.020120000000, -66.00000,
,,,0.020130000000, -66.00000,
,,,0.020140000000, -66.00000,
,,,0.020150000000, -66.00000,
,,,0.020160000000, -66.00000,
,,,0.020170000000, -66.00000,
,,,0.020180000000, -66.00000,
,,,0.020190000000, -66.00000,
,,,0.020200000000, -64.00000,
,,,0.020210000000, -66.00000,
,,,0.020220000000, -66.00000,
,,,0.020230000000, -64.00000,
,,,0.020240000000, -66.00000,
,,,0.020250000000, -64.00000,
,,,0.020260000000, -66.00000,
,,,0.020270000000, -66.00000,
,,,0.020280000000, -64.00000,
,,,0.020290000000, -64.00000,
,,,0.020300000000, -64.00000,
,,,0.020310000000, -64.00000,
,,,0.020320000000, -64.00000,
,,,0.020330000000, -64.00000,
,,,0.020340000000, -64.00000,
,,,0.020350000000, -64.00000,
,,,0.020360000000, -64.00000,
,,,0.020370000000, -64.00000,
,,,0.020380000000, -64.00000,
,,,0.020390000000, -66.00000,
,,,0.020400000000, -64.00000,
,,,0.020410000000, -64.00000,
,,,0.020420000000, -64.00000,
,,,0.020430000000, -64.00000,
,,,0.020440000000, -64.00000,
,,,0.020450000000, -64.00000,
,,,0.020460000000, -64.00000,
,,,0.020470000000, -64.00000,
,,,0.020480000000, -64.00000,
,,,0.020490000000, -64.00000,
,,,0.020500000000, -64.00000,
,,,0.020510000000, -64.00000,
,,,0.020520000000, -64.00000,
,,,0.020530000000, -64.00000,
,,,0.020540000000, -64.00000,
,,,0.020550000000, -64.00000,
,,,0.020560000000, -64.00000,
,,,0.020570000000, -64.00000,
,,,0.020580000000, -64.00000,
,,,0.020590000000, -64.00000,
,,,0.020600000000, -64.00000,
,,,0.020610000000, -64.00000,
,,,0.020620000000, -64.00000,
,,,0.020630000000, -64.00000,
,,,0.020640000000, -64.00000,
,,,0.020650000000, -64.00000,
,,,0.020660000000, -64.00000,
,,,0.020670000000, -62.00000,
,,,0.020680000000, -62.00000,
,,,0.020690000000, -64.00000,
,,,0.020700000000, -62.00000,
,,,0.020710000000, -64.00000,
,,,0.020720000000, -62.00000,
,,,0.020730000000, -64.00000,
,,,0.020740000000, -64.00000,
,,,0.020750000000, -64.00000,
,,,0.020760000000, -64.00000,
,,,0.020770000000, -62.00000,
,,,0.020780000000, -64.00000,
,,,0.020790000000, -64.00000,
,,,0.020800000000, -62.00000,
,,,0.020810000000, -62.00000,
,,,0.020820000000, -62.00000,
,,,0.020830000000, -62.00000,
,,,0.020840000000, -64.00000,
,,,0.020850000000, -62.00000,
,,,0.020860000000, -64.00000,
,,,0.020870000000, -62.00000,
,,,0.020880000000, -62.00000,
,,,0.020890000000, -62.00000,
,,,0.020900000000, -64.00000,
,,,0.020910000000, -62.00000,
,,,0.020920000000, -62.00000,
,,,0.020930000000, -64.00000,
,,,0.020940000000, -62.00000,
,,,0.020950000000, -62.00000,
,,,0.020960000000, -62.00000,
,,,0.020970000000, -62.00000,
,,,0.020980000000, -62.00000,
,,,0.020990000000, -62.00000,
,,,0.021000000000, -62.00000,
,,,0.021010000000, -62.00000,
,,,0.021020000000, -62.00000,
,,,0.021030000000, -62.00000,
,,,0.021040000000, -62.00000,
,,,0.021050000000, -62.00000,
,,,0.021060000000, -62.00000,
,,,0.021070000000, -62.00000,
,,,0.021080000000, -62.00000,
,,,0.021090000000, -62.00000,
,,,0.021100000000, -62.00000,
,,,0.021110000000, -62.00000,
,,,0.021120000000, -62.00000,
,,,0.021130000000, -62.00000,
,,,0.021140000000, -62.00000,
,,,0.021150000000, -62.00000,
,,,0.021160000000, -62.00000,
,,,0.021170000000, -62.00000,
,,,0.021180000000, -62.00000,
,,,0.021190000000, -62.00000,
,,,0.021200000000, -62.00000,
,,,0.021210000000, -62.00000,
,,,0.021220000000, -62.00000,
,,,0.021230000000, -62.00000,
,,,0.021240000000, -62.00000,
,,,0.021250000000, -62.00000,
,,,0.021260000000, -62.00000,
,,,0.021270000000, -62.00000,
,,,0.021280000000, -62.00000,
,,,0.021290000000, -62.00000,
,,,0.021300000000, -62.00000,
,,,0.021310000000, -62.00000,
,,,0.021320000000, -62.00000,
,,,0.021330000000, -62.00000,
,,,0.021340000000, -62.00000,
,,,0.021350000000, -62.00000,
,,,0.021360000000, -62.00000,
,,,0.021370000000, -62.00000,
,,,0.021380000000, -62.00000,
,,,0.021390000000, -62.00000,
,,,0.021400000000, -62.00000,
,,,0.021410000000, -62.00000,
,,,0.021420000000, -60.00000,
,,,0.021430000000, -62.00000,
,,,0.021440000000, -62.00000,
,,,0.021450000000, -62.00000,
,,,0.021460000000, -60.00000,
,,,0.021470000000, -62.00000,
,,,0.021480000000, -62.00000,
,,,0.021490000000, -62.00000,
,,,0.021500000000, -60.00000,
,,,0.021510000000, -62.00000,
,,,0.021520000000, -60.00000,
,,,0.021530000000, -60.00000,
,,,0.021540000000, -60.00000,
,,,0.021550000000, -60.00000,
,,,0.021560000000, -60.00000,
,,,0.021570000000, -60.00000,
,,,0.021580000000, -60.00000,
,,,0.021590000000, -62.00000,
,,,0.021600000000, -60.00000,
,,,0.021610000000, -60.00000,
,,,0.021620000000, -60.00000,
,,,0.021630000000, -60.00000,
,,,0.021640000000, -60.00000,
,,,0.021650000000, -60.00000,
,,,0.021660000000, -60.00000,
,,,0.021670000000, -60.00000,
,,,0.021680000000, -60.00000,
,,,0.021690000000, -60.00000,
,,,0.021700000000, -60.00000,
,,,0.021710000000, -60.00000,
,,,0.021720000000, -60.00000,
,,,0.021730000000, -60.00000,
,,,0.021740000000, -60.00000,
,,,0.021750000000, -60.00000,
,,,0.021760000000, -60.00000,
,,,0.021770000000, -60.00000,
,,,0.021780000000, -60.00000,
,,,0.021790000000, -60.00000,
,,,0.021800000000, -62.00000,
,,,0.021810000000, -60.00000,
,,,0.021820000000, -60.00000,
,,,0.021830000000, -60.00000,
,,,0.021840000000, -60.00000,
,,,0.021850000000, -60.00000,
,,,0.021860000000, -60.00000,
,,,0.021870000000, -60.00000,
,,,0.021880000000, -60.00000,
,,,0.021890000000, -60.00000,
,,,0.021900000000, -60.00000,
,,,0.021910000000, -60.00000,
,,,0.021920000000, -60.00000,
,,,0.021930000000, -60.00000,
,,,0.021940000000, -60.00000,
,,,0.021950000000, -60.00000,
,,,0.021960000000, -60.00000,
,,,0.021970000000, -60.00000,
,,,0.021980000000, -60.00000,
,,,0.021990000000, -60.00000,
,,,0.022000000000, -60.00000,
,,,0.022010000000, -60.00000,
,,,0.022020000000, -60.00000,
,,,0.022030000000, -60.00000,
